{
 "name": "newlib16",
 "children": [
  {
   "title": "Page 1",
   "id": "9c8623eb-9eeb-5235-7dd8-4c29ba6f63be",
   "pageId": "9c8623eb-9eeb-5235-7dd8-4c29ba6f63be",
   "type": "page"
  },
  {
   "title": "Page 2",
   "id": "83a97204-cf44-4e41-24fe-94a8003bc862",
   "pageId": "83a97204-cf44-4e41-24fe-94a8003bc862",
   "type": "page"
  }
 ]
}